(export (version "D")
  (design
    (source "/home/jon/work/kicad/qa/eeschema/data/netlists/noconnects/noconnects.kicad_sch")
    (date "Thu 14 Jan 2021 20:58:07 EST")
    (tool "Eeschema (5.99.0-8422-g02681fcf0e)")
    (sheet (number "1") (name "/") (tstamps "/")
      (title_block
        (title)
        (company)
        (rev)
        (date)
        (source "noconnects.kicad_sch")
        (comment (number "1") (value ""))
        (comment (number "2") (value ""))
        (comment (number "3") (value ""))
        (comment (number "4") (value ""))
        (comment (number "5") (value ""))
        (comment (number "6") (value ""))
        (comment (number "7") (value ""))
        (comment (number "8") (value ""))
        (comment (number "9") (value "")))))
  (components
    (comp (ref "U1")
      (value "IR4301")
      (footprint "Package_DFN_QFN:Infineon_PQFN-22-15-4EP_6x5mm_P0.65mm")
      (datasheet "https://www.infineon.com/dgdl/ir4301.pdf?fileId=5546d462533600a4015355d5fc691819")
      (libsource (lib "Amplifier_Audio") (part "IR4301") (description "PowIRaudio Integrated Analog Input Class D Audio Amplifier, 160W/4ohm, 80V, PQFN-22"))
      (property (name "Sheet name") (value ""))
      (property (name "Sheet file") (value "/home/jon/work/kicad/qa/eeschema/data/netlists/noconnects/noconnects.kicad_sch"))
      (sheetpath (names "/") (tstamps "/"))
      (tstamp "af06e391-97a5-4828-9343-f3162acaa60a")))
  (libparts
    (libpart (lib "Amplifier_Audio") (part "IR4301")
      (description "PowIRaudio Integrated Analog Input Class D Audio Amplifier, 160W/4ohm, 80V, PQFN-22")
      (docs "https://www.infineon.com/dgdl/ir4301.pdf?fileId=5546d462533600a4015355d5fc691819")
      (footprints
        (fp "Infineon*PQFN*4EP*6x5mm*P0.65mm*"))
      (fields
        (field (name "Reference") "U")
        (field (name "Value") "IR4301")
        (field (name "Footprint") "Package_DFN_QFN:Infineon_PQFN-22-15-4EP_6x5mm_P0.65mm")
        (field (name "Datasheet") "https://www.infineon.com/dgdl/ir4301.pdf?fileId=5546d462533600a4015355d5fc691819"))
      (pins
        (pin (num "1") (name "VAA") (type "power_in"))
        (pin (num "2") (name "GND") (type "power_in"))
        (pin (num "3") (name "IN+") (type "input"))
        (pin (num "4") (name "IN-") (type "input"))
        (pin (num "5") (name "COMP") (type "output"))
        (pin (num "6") (name "CSD") (type "passive"))
        (pin (num "7") (name "VSS") (type "power_in"))
        (pin (num "8") (name "VCC") (type "power_in"))
        (pin (num "9") (name "COM") (type "power_in"))
        (pin (num "10") (name "VN") (type "power_in"))
        (pin (num "11") (name "VS") (type "output"))
        (pin (num "12") (name "VP") (type "power_in"))
        (pin (num "13") (name "VB") (type "power_in"))
        (pin (num "14") (name "CSH") (type "passive"))
        (pin (num "15") (name "COM") (type "NotConnected"))
        (pin (num "16") (name "PTNC") (type "NotConnected")))))
  (libraries
    (library (logical "Amplifier_Audio")
      (uri "/home/jon/kicad-library/kicad-symbols//Amplifier_Audio.lib")))
  (nets
    (net (code "1") (name "/VS")
      (node (ref "U1") (pin "11") (pinfunction "VS")))
    (net (code "2") (name "Net-(U1-Pad7)")
      (node (ref "U1") (pin "7") (pinfunction "VSS"))
      (node (ref "U1") (pin "9") (pinfunction "COM")))
    (net (code "3") (name "no_connect_(U1-Pad1)")
      (node (ref "U1") (pin "1") (pinfunction "VAA")))
    (net (code "4") (name "no_connect_(U1-Pad2)")
      (node (ref "U1") (pin "2") (pinfunction "GND")))
    (net (code "5") (name "no_connect_(U1-Pad3)")
      (node (ref "U1") (pin "3") (pinfunction "IN+")))
    (net (code "6") (name "no_connect_(U1-Pad4)")
      (node (ref "U1") (pin "4") (pinfunction "IN-")))
    (net (code "7") (name "no_connect_(U1-Pad5)")
      (node (ref "U1") (pin "5") (pinfunction "COMP")))
    (net (code "8") (name "no_connect_(U1-Pad6)")
      (node (ref "U1") (pin "6") (pinfunction "CSD")))
    (net (code "9") (name "no_connect_(U1-Pad8)")
      (node (ref "U1") (pin "8") (pinfunction "VCC")))
    (net (code "10") (name "no_connect_(U1-Pad10)")
      (node (ref "U1") (pin "10") (pinfunction "VN")))
    (net (code "11") (name "no_connect_(U1-Pad12)")
      (node (ref "U1") (pin "12") (pinfunction "VP")))
    (net (code "12") (name "no_connect_(U1-Pad13)")
      (node (ref "U1") (pin "13") (pinfunction "VB")))
    (net (code "13") (name "no_connect_(U1-Pad14)")
      (node (ref "U1") (pin "14") (pinfunction "CSH")))
    (net (code "14") (name "no_connect_(U1-Pad15)")
      (node (ref "U1") (pin "15") (pinfunction "COM")))
    (net (code "15") (name "no_connect_(U1-Pad16)")
      (node (ref "U1") (pin "16") (pinfunction "PTNC")))))